 20.0 6.98449E+02
 20.5 9.87138E+02
 21.0 1.37442E+03
 21.5 1.83487E+03
 22.0 2.41288E+03
 22.5 3.08184E+03
 23.0 3.87889E+03
 23.5 4.74385E+03
 24.0 5.79163E+03
 24.5 6.87047E+03
 25.0 8.02702E+03
 25.5 9.36207E+03
 26.0 1.07545E+04
 26.5 1.21680E+04
 27.0 1.37380E+04
 27.5 1.52863E+04
 28.0 1.69831E+04
 28.5 1.85876E+04
 29.0 2.03152E+04
 29.5 2.18760E+04
 30.0 2.35261E+04
 30.5 2.52698E+04
 31.0 2.67471E+04
 31.5 2.84351E+04
 32.0 2.99424E+04
 32.5 3.14666E+04
 33.0 3.29049E+04
 33.5 3.42757E+04
 34.0 3.55843E+04
 34.5 3.68769E+04
 35.0 3.80163E+04
 35.5 3.91635E+04
 36.0 4.02183E+04
 36.5 4.11523E+04
 37.0 4.20836E+04
 37.5 4.29054E+04
 38.0 4.37206E+04
 38.5 4.44193E+04
 39.0 4.50413E+04
 39.5 4.56531E+04
 40.0 4.61859E+04
 40.5 4.66381E+04
 41.0 4.70317E+04
 41.5 4.73426E+04
 42.0 4.76416E+04
 42.5 4.79294E+04
 43.0 4.80863E+04
 43.5 4.83047E+04
 44.0 4.83682E+04
 44.5 4.84704E+04
 45.0 4.84666E+04
 45.5 4.85028E+04
 46.0 4.84585E+04
 46.5 4.83344E+04
 47.0 4.83004E+04
 47.5 4.81639E+04
 48.0 4.79741E+04
 48.5 4.78516E+04
 49.0 4.76531E+04
 49.5 4.73799E+04
 50.0 4.71703E+04
 50.5 4.68969E+04
 51.0 4.66219E+04
 51.5 4.63431E+04
 52.0 4.60033E+04
 52.5 4.57253E+04
 53.0 4.53853E+04
 53.5 4.50458E+04
 54.0 4.47068E+04
 54.5 4.43090E+04
 55.0 4.39723E+04
 55.5 4.35780E+04
 56.0 4.31858E+04
 56.5 4.27960E+04
 57.0 4.24087E+04
 57.5 4.20238E+04
 58.0 1.91317E+05
 58.5 4.12061E+04
 59.0 4.08295E+04
 59.5 3.07976E+05
 60.0 3.99762E+04
 60.5 3.95552E+04
 61.0 3.91379E+04
 61.5 3.87243E+04
 62.0 3.83145E+04
 62.5 3.79082E+04
 63.0 3.74549E+04
 63.5 3.70564E+04
 64.0 3.66613E+04
 64.5 3.62207E+04
 65.0 3.57847E+04
 65.5 3.53991E+04
 66.0 3.49713E+04
 66.5 3.45478E+04
 67.0 1.31264E+05
 67.5 3.37132E+04
 68.0 3.33020E+04
 68.5 3.28948E+04
 69.0 5.85514E+04
 69.5 3.08295E+04
 70.0 2.42349E+04
 70.5 2.40853E+04
 71.0 2.39003E+04
 71.5 2.37449E+04
 72.0 2.35865E+04
 72.5 2.33937E+04
 73.0 2.32298E+04
 73.5 2.30321E+04
 74.0 2.28630E+04
 74.5 2.26606E+04
 75.0 2.24865E+04
 75.5 2.22796E+04
 76.0 2.20709E+04
 76.5 2.18896E+04
 77.0 2.16767E+04
 77.5 2.14619E+04
 78.0 2.12741E+04
 78.5 2.10554E+04
 79.0 2.08351E+04
 79.5 2.06132E+04
 80.0 2.03896E+04
 80.5 2.01644E+04
 81.0 1.99378E+04
 81.5 1.97096E+04
 82.0 1.95063E+04
 82.5 1.92750E+04
 83.0 1.90423E+04
 83.5 1.88083E+04
 84.0 1.85479E+04
 84.5 1.83117E+04
 85.0 1.80742E+04
 85.5 1.78356E+04
 86.0 1.75957E+04
 86.5 1.73548E+04
 87.0 1.71127E+04
 87.5 1.68696E+04
 88.0 1.66255E+04
 88.5 1.63583E+04
 89.0 1.61126E+04
 89.5 1.58658E+04
 90.0 1.56182E+04
 90.5 1.53490E+04
 91.0 1.51000E+04
 91.5 1.48501E+04
 92.0 1.45995E+04
 92.5 1.43287E+04
 93.0 1.40769E+04
 93.5 1.38243E+04
 94.0 1.35528E+04
 94.5 1.32991E+04
 95.0 1.30449E+04
 95.5 1.27728E+04
 96.0 1.25176E+04
 96.5 1.22620E+04
 97.0 1.19895E+04
 97.5 1.17331E+04
 98.0 1.14606E+04
 98.5 1.12035E+04
 99.0 1.09313E+04
 99.5 1.06735E+04
100.0 1.04155E+04
100.5 1.01433E+04
101.0 9.88482E+03
101.5 9.61304E+03
102.0 9.35419E+03
102.5 9.08284E+03
103.0 8.82371E+03
103.5 8.55287E+03
104.0 8.29361E+03
104.5 8.02337E+03
105.0 7.76404E+03
105.5 7.49444E+03
106.0 7.23516E+03
106.5 6.96632E+03
107.0 6.70714E+03
107.5 6.43916E+03
108.0 6.17182E+03
108.5 5.91313E+03
109.0 5.64677E+03
109.5 5.38838E+03
110.0 5.12309E+03
110.5 4.86511E+03
111.0 4.60097E+03
111.5 4.33760E+03
112.0 4.08056E+03
112.5 3.81847E+03
113.0 3.56204E+03
113.5 3.30131E+03
114.0 3.04148E+03
114.5 2.78631E+03
115.0 2.52796E+03
115.5 2.27363E+03
116.0 2.01685E+03
116.5 1.76106E+03
117.0 1.50833E+03
117.5 1.25425E+03
118.0 1.00121E+03
118.5 7.50270E+02
119.0 4.99071E+02
119.5 2.48990E+02
120.0 2.07493E+01
